…
    ## New names:
    ## * NA -> ...1
    ## * NA -> ...2

    ## rename: renamed 2 variables (state, abb)

``` r
states
```

    ## # A tibble: 50 x 2
    ##    state       abb  
    ##    <chr>       <chr>
    ##  1 Alabama     al   
    ##  2 Alaska      ak   
    ##  3 Arizona     az   
    ##  4 Arkansas    ar   
    ##  5 California  ca   
    ##  6 Colorado    co   
    ##  7 Connecticut ct   
    ##  8 Delaware    de   
    ##  9 Florida     fl   
    ## 10 Georgia     ga   
    ## # ... with 40 more rows
…
    ## filter: removed 51,392,212 rows (81%), 12,325,019 rows remaining

Examine years and quarters to ensure the correct period is pulled.

``` r
sdud_2010_2020 %>%
  distinct(year, quarter) %>%
  arrange(year, desc(quarter))
```

    ## distinct: removed 12,324,978 rows (>99%), 41 rows remaining

    ## # A tibble: 41 x 2
    ##     year quarter
    ##    <int>   <int>
    ##  1  2010       4
    ##  2  2010       3
    ##  3  2010       2
    ##  4  2010       1
    ##  5  2011       4
    ##  6  2011       3
    ##  7  2011       2
    ##  8  2011       1
    ##  9  2012       4
    ## 10  2012       3
    ## # ... with 31 more rows
…
``` r
# Create data set containing generic name, brand name, and ndc number.
ndc_gen_brand_names <- 
  sdud_2010_2020_bup_flags %>%
  distinct(gennme_c, prodnme, ndc)
```

    ## distinct: removed 21,417 rows (99%), 131 rows remaining

``` r
# Examine data set.
ndc_gen_brand_names
```

    ## # A tibble: 131 x 3
    ##    ndc         gennme_c                    prodnme               
    ##    <chr>       <chr>                       <chr>                 
    ##  1 00054017713 Buprenorphine Hydrochloride BUPRENORPHINE         
    ##  2 00093365840 Buprenorphine               BUPRENORPHINE         
    ##  3 12496120203 Buprenorphine/Naloxone      SUBOXONE              
    ##  4 00093365640 Buprenorphine               BUPRENORPHINE         
    ##  5 00228315303 Buprenorphine Hydrochloride BUPRENORPHINE         
    ##  6 00228315503 Buprenorphine/Naloxone      BUPRENORPHINE-NALOXONE
    ##  7 12496120403 Buprenorphine/Naloxone      SUBOXONE              
    ##  8 59385002160 Buprenorphine               BELBUCA               
    ##  9 42858058640 Buprenorphine               BUPRENORPHINE         
    ## 10 59011075204 Buprenorphine               BUTRANS               
    ## # ... with 121 more rows
…
